{
    "coming": [
        {
            "id": 1211269,
            "img": "http://p0.meituan.net/w.h/moviemachine/da8024493c8142c0949f8b72d43934c0351577.jpg",
            "wish": 1318902,
            "wishst": 0,
            "nm": "姜子牙",
            "comingTitle": "10月1日 周四"
        },
        {
            "id": 1217123,
            "img": "http://p1.meituan.net/w.h/movie/988ab3d3a50f51f31d090e84da88d5ae3461853.jpg",
            "wish": 510806,
            "wishst": 0,
            "nm": "夺冠",
            "comingTitle": "9月25日 周五"
        },
        {
            "id": 1328712,
            "img": "http://p0.meituan.net/w.h/movie/202ea88abd2abf2aa1964487d61edab64556414.jpg",
            "wish": 350743,
            "wishst": 0,
            "nm": "我和我的家乡",
            "comingTitle": "10月1日 周四"
        },
        {
            "id": 1216053,
            "img": "http://p0.meituan.net/w.h/movie/d1a953193e001c8dec96c17ea5075ec0788729.jpg",
            "wish": 268957,
            "wishst": 0,
            "nm": "急先锋",
            "comingTitle": "9月30日 周三"
        },
        {
            "id": 1298859,
            "img": "http://p0.meituan.net/w.h/movie/84a2c5e0959ac2d625039690553c19d1454744.jpg",
            "wish": 176320,
            "wishst": 0,
            "nm": "木兰：横空出世",
            "comingTitle": "10月3日 周六"
        },
        {
            "id": 1218142,
            "img": "http://p0.meituan.net/w.h/movie/4e279e72e6ce10e22d4e79fefb9c574a818219.jpg",
            "wish": 133101,
            "wishst": 0,
            "nm": "拆弹专家2",
            "comingTitle": "12月24日 周四"
        },
        {
            "id": 1331267,
            "img": "http://p1.meituan.net/w.h/movie/c16b0a68f95d884d428f339f8eacce834410200.jpg",
            "wish": 27393,
            "wishst": 0,
            "nm": "一点就到家",
            "comingTitle": "10月4日 周日"
        },
        {
            "id": 2212,
            "img": "http://p0.meituan.net/w.h/movie/0bd752877b95b8eac2d0704c783f372c4625354.jpg",
            "wish": 22342,
            "wishst": 0,
            "nm": "菊次郎的夏天",
            "comingTitle": "9月25日 周五"
        },
        {
            "id": 1218437,
            "img": "http://p0.meituan.net/w.h/movie/f7a6a04124b190c6f389e0500b1fd5df2892304.jpg",
            "wish": 21982,
            "wishst": 0,
            "nm": "日不落酒店",
            "comingTitle": "12月12日 周六"
        },
        {
            "id": 1217249,
            "img": "http://p0.meituan.net/w.h/movie/8999e5dee18d13b9a02ba4a2283e38b71362022.jpg",
            "wish": 20129,
            "wishst": 0,
            "nm": "网络凶铃",
            "comingTitle": "10月30日 周五"
        }
    ],
    "paging": {
        "hasMore": true,
        "limit": 10,
        "offset": 0,
        "total": 30
    }
}