{
    "cinemas": [
        {
            "id": 17068,
            "mark": 0,
            "nm": "传奇影城（后瑞店）",
            "sellPrice": "38",
            "addr": "宝安区西乡街道后瑞地铁站B出口100处（壹航城购物中心T2栋）",
            "distance": "900m",
            "tag": {
                "allowRefund": 1,
                "buyout": 0,
                "cityCardTag": 0,
                "deal": 0,
                "endorse": 1,
                "giftTag": "",
                "hallType": [
                    
                ],
                "hallTypeVOList": [
                    
                ],
                "sell": 1,
                "snack": 1,
                "vipTag": ""
            },
            "promotion": {
                "cardPromotionTag": "",
                "couponPromotionTag": "",
                "merchantActivityTag": "",
                "packShowActivityTag": "",
                "platformActivityTag": "",
                "starActivityTag": ""
            },
            "showTimes": "19:00 | 19:40 | 20:40"
        },
        {
            "id": 15855,
            "mark": 0,
            "nm": "凤凰国际影城",
            "sellPrice": "38",
            "addr": "宝安区西乡街道宝安大道5010号西部硅谷（后瑞地铁站旁）B座1楼",
            "distance": "1.6km",
            "tag": {
                "allowRefund": 1,
                "buyout": 0,
                "cityCardTag": 0,
                "deal": 0,
                "endorse": 1,
                "giftTag": "",
                "hallType": [
                    "杜比全景声厅"
                ],
                "hallTypeVOList": [
                    {
                        "name": "杜比全景声厅",
                        "url": ""
                    }
                ],
                "sell": 1,
                "snack": 1,
                "vipTag": ""
            },
            "promotion": {
                "cardPromotionTag": "",
                "couponPromotionTag": "",
                "merchantActivityTag": "",
                "packShowActivityTag": "",
                "platformActivityTag": "",
                "starActivityTag": ""
            },
            "showTimes": "19:35 | 20:40 | 22:20"
        },
        {
            "id": 15428,
            "mark": 0,
            "nm": "中影UL城市影城（黄田店）",
            "sellPrice": "38",
            "addr": "宝安区西乡街道长园路28号昌宏百货四楼",
            "distance": "2.2km",
            "tag": {
                "allowRefund": 0,
                "buyout": 0,
                "cityCardTag": 0,
                "deal": 0,
                "endorse": 1,
                "giftTag": "",
                "hallType": [
                    
                ],
                "hallTypeVOList": [
                    
                ],
                "sell": 1,
                "snack": 1,
                "vipTag": ""
            },
            "promotion": {
                "cardPromotionTag": "",
                "couponPromotionTag": "",
                "merchantActivityTag": "",
                "packShowActivityTag": "",
                "platformActivityTag": "",
                "starActivityTag": ""
            },
            "showTimes": "20:00 | 22:35"
        },
        {
            "id": 13729,
            "mark": 0,
            "nm": "中影德金影院福永店",
            "sellPrice": "40",
            "addr": "宝安区福永街道翠岗公园群艺馆一楼",
            "distance": "3km",
            "tag": {
                "allowRefund": 1,
                "buyout": 0,
                "cityCardTag": 0,
                "deal": 0,
                "endorse": 1,
                "giftTag": "",
                "hallType": [
                    
                ],
                "hallTypeVOList": [
                    
                ],
                "sell": 1,
                "snack": 1,
                "vipTag": "折扣卡"
            },
            "promotion": {
                "cardPromotionTag": "",
                "couponPromotionTag": "",
                "merchantActivityTag": "",
                "packShowActivityTag": "",
                "platformActivityTag": "",
                "starActivityTag": ""
            },
            "showTimes": "19:00"
        },
        {
            "id": 15406,
            "mark": 0,
            "nm": "幕森国际影城",
            "sellPrice": "38",
            "addr": "宝安区福永街道128号怀德村委旁汇隆城5层",
            "distance": "3.7km",
            "tag": {
                "allowRefund": 0,
                "buyout": 0,
                "cityCardTag": 0,
                "deal": 0,
                "endorse": 0,
                "giftTag": "",
                "hallType": [
                    
                ],
                "hallTypeVOList": [
                    
                ],
                "sell": 1,
                "snack": 0,
                "vipTag": "折扣卡"
            },
            "promotion": {
                "cardPromotionTag": "开卡特惠，首单1张最高立减4元",
                "couponPromotionTag": "",
                "merchantActivityTag": "",
                "packShowActivityTag": "",
                "platformActivityTag": "",
                "starActivityTag": ""
            },
            "showTimes": "19:15 | 20:00 | 21:00"
        },
        {
            "id": 24103,
            "mark": 0,
            "nm": "益田国际影城（福永店）",
            "sellPrice": "38",
            "addr": "宝安区福永街道永泰西路益田假日天地二楼",
            "distance": "3.7km",
            "tag": {
                "allowRefund": 1,
                "buyout": 0,
                "cityCardTag": 0,
                "deal": 0,
                "endorse": 1,
                "giftTag": "",
                "hallType": [
                    "杜比全景声厅"
                ],
                "hallTypeVOList": [
                    {
                        "name": "杜比全景声厅",
                        "url": ""
                    }
                ],
                "sell": 1,
                "snack": 1,
                "vipTag": "折扣卡"
            },
            "promotion": {
                "cardPromotionTag": "开卡特惠，首单1张最高立减2元",
                "couponPromotionTag": "",
                "merchantActivityTag": "",
                "packShowActivityTag": "",
                "platformActivityTag": "",
                "starActivityTag": ""
            },
            "showTimes": "19:25 | 20:10 | 21:05"
        },
        {
            "id": 27922,
            "mark": 0,
            "nm": "中影南方鹤洲影城（和健生活广场店）",
            "sellPrice": "43",
            "addr": "宝安区深圳润科华府1期和健生活广场1楼",
            "distance": "3.7km",
            "tag": {
                "allowRefund": 1,
                "buyout": 0,
                "cityCardTag": 0,
                "deal": 0,
                "endorse": 1,
                "giftTag": "",
                "hallType": [
                    
                ],
                "hallTypeVOList": [
                    
                ],
                "sell": 1,
                "snack": 1,
                "vipTag": ""
            },
            "promotion": {
                "cardPromotionTag": "",
                "couponPromotionTag": "",
                "merchantActivityTag": "",
                "packShowActivityTag": "",
                "platformActivityTag": "",
                "starActivityTag": ""
            },
            "showTimes": "19:00 | 20:15 | 21:45"
        },
        {
            "id": 16897,
            "mark": 0,
            "nm": "美视国际影城（4K沉浸音）",
            "sellPrice": "41",
            "addr": "宝安区西乡街道前进二路桃源居10区28栋（人人乐超市二楼）",
            "distance": "3.9km",
            "tag": {
                "allowRefund": 1,
                "buyout": 0,
                "cityCardTag": 0,
                "deal": 0,
                "endorse": 1,
                "giftTag": "",
                "hallType": [
                    
                ],
                "hallTypeVOList": [
                    
                ],
                "sell": 1,
                "snack": 1,
                "vipTag": "折扣卡"
            },
            "promotion": {
                "cardPromotionTag": "开卡特惠，首单1张最高立减4元",
                "couponPromotionTag": "",
                "merchantActivityTag": "",
                "packShowActivityTag": "",
                "platformActivityTag": "",
                "starActivityTag": ""
            },
            "showTimes": "20:00 | 21:45 | 22:45"
        },
        {
            "id": 24021,
            "mark": 0,
            "nm": "中影星美明星国际影城（福永康之宝店）",
            "sellPrice": "38",
            "addr": "宝安区福永街道康之宝超级广场三楼",
            "distance": "4km",
            "tag": {
                "allowRefund": 1,
                "buyout": 0,
                "cityCardTag": 0,
                "deal": 0,
                "endorse": 1,
                "giftTag": "",
                "hallType": [
                    
                ],
                "hallTypeVOList": [
                    
                ],
                "sell": 1,
                "snack": 1,
                "vipTag": "折扣卡"
            },
            "promotion": {
                "cardPromotionTag": "开卡特惠，首单1张最高立减2元",
                "couponPromotionTag": "",
                "merchantActivityTag": "",
                "packShowActivityTag": "",
                "platformActivityTag": "",
                "starActivityTag": ""
            },
            "showTimes": "19:05 | 20:00 | 21:45"
        },
        {
            "id": 28593,
            "mark": 0,
            "nm": "博纳国际影城（深圳领航店）",
            "sellPrice": "39",
            "addr": "宝安区航城街道三围社区航城里购物中心3楼",
            "distance": "4.1km",
            "tag": {
                "allowRefund": 0,
                "buyout": 0,
                "cityCardTag": 0,
                "deal": 0,
                "endorse": 0,
                "giftTag": "",
                "hallType": [
                    "杜比全景声厅",
                    "DTS:X 临境音厅"
                ],
                "hallTypeVOList": [
                    {
                        "name": "杜比全景声厅",
                        "url": ""
                    },
                    {
                        "name": "DTS:X 临境音厅",
                        "url": ""
                    }
                ],
                "sell": 1,
                "snack": 1,
                "vipTag": ""
            },
            "promotion": {
                "cardPromotionTag": "",
                "couponPromotionTag": "",
                "merchantActivityTag": "",
                "packShowActivityTag": "",
                "platformActivityTag": "",
                "starActivityTag": ""
            },
            "showTimes": "20:00 | 21:00"
        },
        {
            "id": 25431,
            "mark": 0,
            "nm": "明星国际影城（宝安店）",
            "sellPrice": "38",
            "addr": "宝安区西乡街道固戍二路万力华大厦一楼",
            "distance": "4.5km",
            "tag": {
                "allowRefund": 1,
                "buyout": 0,
                "cityCardTag": 0,
                "deal": 0,
                "endorse": 1,
                "giftTag": "",
                "hallType": [
                    
                ],
                "hallTypeVOList": [
                    
                ],
                "sell": 1,
                "snack": 0,
                "vipTag": ""
            },
            "promotion": {
                "cardPromotionTag": "",
                "couponPromotionTag": "",
                "merchantActivityTag": "",
                "packShowActivityTag": "",
                "platformActivityTag": "",
                "starActivityTag": ""
            },
            "showTimes": "19:00 | 20:00 | 20:40"
        },
        {
            "id": 28388,
            "mark": 0,
            "nm": "中影泰得影城（福永意库店）",
            "sellPrice": "38",
            "addr": "宝安区福永街道福永意库9栋首层（福永地铁站D出口100米）",
            "distance": "4.5km",
            "tag": {
                "allowRefund": 1,
                "buyout": 0,
                "cityCardTag": 0,
                "deal": 0,
                "endorse": 0,
                "giftTag": "",
                "hallType": [
                    
                ],
                "hallTypeVOList": [
                    
                ],
                "sell": 1,
                "snack": 0,
                "vipTag": ""
            },
            "promotion": {
                "cardPromotionTag": "",
                "couponPromotionTag": "",
                "merchantActivityTag": "",
                "packShowActivityTag": "",
                "platformActivityTag": "",
                "starActivityTag": ""
            },
            "showTimes": "20:30 | 21:35"
        },
        {
            "id": 7555,
            "mark": 0,
            "nm": "嘉乐国际影城（固戍店）",
            "sellPrice": "38",
            "addr": "宝安区西乡固戍村固戍一路置富广场一楼",
            "distance": "5.3km",
            "tag": {
                "allowRefund": 0,
                "buyout": 0,
                "cityCardTag": 0,
                "deal": 0,
                "endorse": 1,
                "giftTag": "",
                "hallType": [
                    
                ],
                "hallTypeVOList": [
                    
                ],
                "sell": 1,
                "snack": 1,
                "vipTag": "折扣卡"
            },
            "promotion": {
                "cardPromotionTag": "开卡特惠，首单1张最高立减2元",
                "couponPromotionTag": "",
                "merchantActivityTag": "",
                "packShowActivityTag": "",
                "platformActivityTag": "",
                "starActivityTag": ""
            },
            "showTimes": "18:35 | 21:10"
        },
        {
            "id": 23768,
            "mark": 0,
            "nm": "太平洋影城（深圳同泰时代广场店）",
            "sellPrice": "39.9",
            "addr": "宝安区福永街道同泰时代广场4层",
            "distance": "5.3km",
            "tag": {
                "allowRefund": 1,
                "buyout": 0,
                "cityCardTag": 0,
                "deal": 0,
                "endorse": 1,
                "giftTag": "",
                "hallType": [
                    "CGS中国巨幕厅",
                    "杜比全景声厅"
                ],
                "hallTypeVOList": [
                    {
                        "name": "CGS中国巨幕厅",
                        "url": ""
                    },
                    {
                        "name": "杜比全景声厅",
                        "url": ""
                    }
                ],
                "sell": 1,
                "snack": 0,
                "vipTag": "折扣卡"
            },
            "promotion": {
                "cardPromotionTag": "开卡特惠，首单2张最高立减2元",
                "couponPromotionTag": "",
                "merchantActivityTag": "",
                "packShowActivityTag": "",
                "platformActivityTag": "",
                "starActivityTag": ""
            },
            "showTimes": "19:40 | 20:50 | 21:30"
        },
        {
            "id": 16901,
            "mark": 0,
            "nm": "环球国际影城（福永凤凰山店）",
            "sellPrice": "38",
            "addr": "宝安区福永街道凤凰社区凤凰御林山景F3-03",
            "distance": "5.8km",
            "tag": {
                "allowRefund": 0,
                "buyout": 0,
                "cityCardTag": 0,
                "deal": 0,
                "endorse": 0,
                "giftTag": "",
                "hallType": [
                    
                ],
                "hallTypeVOList": [
                    
                ],
                "sell": 1,
                "snack": 1,
                "vipTag": "折扣卡"
            },
            "promotion": {
                "cardPromotionTag": "开卡特惠，首单1张最高立减4元",
                "couponPromotionTag": "",
                "merchantActivityTag": "",
                "packShowActivityTag": "",
                "platformActivityTag": "",
                "starActivityTag": ""
            },
            "showTimes": "18:50 | 20:10 | 21:30"
        },
        {
            "id": 13046,
            "mark": 0,
            "nm": "东海国际影城",
            "sellPrice": "38",
            "addr": "宝安区福永街道桥头社区永福路120号（东海百货4楼）",
            "distance": "6.3km",
            "tag": {
                "allowRefund": 1,
                "buyout": 0,
                "cityCardTag": 0,
                "deal": 0,
                "endorse": 1,
                "giftTag": "",
                "hallType": [
                    
                ],
                "hallTypeVOList": [
                    
                ],
                "sell": 1,
                "snack": 1,
                "vipTag": ""
            },
            "promotion": {
                "cardPromotionTag": "",
                "couponPromotionTag": "",
                "merchantActivityTag": "",
                "packShowActivityTag": "",
                "platformActivityTag": "",
                "starActivityTag": ""
            },
            "showTimes": "19:32 | 20:32"
        },
        {
            "id": 15799,
            "mark": 0,
            "nm": "中影德金影城（西乡店）",
            "sellPrice": "40",
            "addr": "宝安区宝民二路和宝民一路交汇处缤纷时代购物中心一楼",
            "distance": "6.8km",
            "tag": {
                "allowRefund": 1,
                "buyout": 0,
                "cityCardTag": 0,
                "deal": 0,
                "endorse": 1,
                "giftTag": "",
                "hallType": [
                    
                ],
                "hallTypeVOList": [
                    
                ],
                "sell": 1,
                "snack": 1,
                "vipTag": "折扣卡"
            },
            "promotion": {
                "cardPromotionTag": "",
                "couponPromotionTag": "",
                "merchantActivityTag": "",
                "packShowActivityTag": "",
                "platformActivityTag": "",
                "starActivityTag": ""
            },
            "showTimes": "20:00 | 21:00"
        },
        {
            "id": 2623,
            "mark": 0,
            "nm": "新华银兴国际影城",
            "sellPrice": "38",
            "addr": "宝安区西乡宝安大道与金海路交汇处金港华庭一栋三层（西乡客运站对面）",
            "distance": "6.9km",
            "tag": {
                "allowRefund": 0,
                "buyout": 0,
                "cityCardTag": 0,
                "deal": 0,
                "endorse": 1,
                "giftTag": "",
                "hallType": [
                    
                ],
                "hallTypeVOList": [
                    
                ],
                "sell": 1,
                "snack": 1,
                "vipTag": "折扣卡"
            },
            "promotion": {
                "cardPromotionTag": "开卡特惠，首单1张最高立减2元",
                "couponPromotionTag": "",
                "merchantActivityTag": "",
                "packShowActivityTag": "",
                "platformActivityTag": "",
                "starActivityTag": ""
            },
            "showTimes": "19:10 | 21:55"
        },
        {
            "id": 16188,
            "mark": 0,
            "nm": "中影UL城市巨幕影城（万荟城店）",
            "sellPrice": "34.2",
            "addr": "宝安区西乡街道宝田一路中熙香缤山九栋商业广场四楼",
            "distance": "7.1km",
            "tag": {
                "allowRefund": 1,
                "buyout": 0,
                "cityCardTag": 0,
                "deal": 0,
                "endorse": 1,
                "giftTag": "",
                "hallType": [
                    
                ],
                "hallTypeVOList": [
                    
                ],
                "sell": 1,
                "snack": 1,
                "vipTag": "折扣卡"
            },
            "promotion": {
                "cardPromotionTag": "开卡特惠，首单1张最高立减2元",
                "couponPromotionTag": "",
                "merchantActivityTag": "",
                "packShowActivityTag": "",
                "platformActivityTag": "",
                "starActivityTag": ""
            },
            "showTimes": "19:00 | 21:35"
        },
        {
            "id": 6326,
            "mark": 0,
            "nm": "中影德金影城和平店",
            "sellPrice": "40",
            "addr": "宝安区福永镇和平村桥和路315号（德金财富广场）",
            "distance": "7.2km",
            "tag": {
                "allowRefund": 1,
                "buyout": 0,
                "cityCardTag": 0,
                "deal": 0,
                "endorse": 1,
                "giftTag": "",
                "hallType": [
                    
                ],
                "hallTypeVOList": [
                    
                ],
                "sell": 1,
                "snack": 1,
                "vipTag": "折扣卡"
            },
            "promotion": {
                "cardPromotionTag": "",
                "couponPromotionTag": "",
                "merchantActivityTag": "",
                "packShowActivityTag": "",
                "platformActivityTag": "",
                "starActivityTag": ""
            },
            "showTimes": "18:45 | 20:20 | 21:30"
        }
    ],
    "movieId": "346210",
    "day": "2020-09-22",
    "random": 1600770459187,
    "paging": {
        "hasMore": true,
        "limit": 20,
        "offset": 0,
        "total": 239
    },
    "showDays": {
        "dates": [
            {
                "date": "2020-09-22",
                "isPredate": 0
            },
            {
                "date": "2020-09-23",
                "isPredate": 0
            },
            {
                "date": "2020-09-24",
                "isPredate": 0
            },
            {
                "date": "2020-09-25",
                "isPredate": 0
            },
            {
                "date": "2020-09-26",
                "isPredate": 0
            },
            {
                "date": "2020-09-27",
                "isPredate": 0
            },
            {
                "date": "2020-09-28",
                "isPredate": 0
            },
            {
                "date": "2020-09-29",
                "isPredate": 0
            },
            {
                "date": "2020-09-30",
                "isPredate": 0
            },
            {
                "date": "2020-10-04",
                "isPredate": 0
            },
            {
                "date": "2020-10-05",
                "isPredate": 0
            },
            {
                "date": "2020-10-06",
                "isPredate": 0
            },
            {
                "date": "2020-10-07",
                "isPredate": 0
            },
            {
                "date": "2020-10-08",
                "isPredate": 0
            }
        ]
    },
    "resId": "1600770457343"
}